<?xml version="1.0" standalone="no"?>
<!DOCTYPE svg PUBLIC "-//W3C//DTD SVG 1.1//EN" "http://www.w3.org/Graphics/SVG/1.1/DTD/svg11.dtd" >
<svg xmlns="http://www.w3.org/2000/svg">
<metadata>Generated by IcoMoon</metadata>
<defs>
<font id="icomoon" horiz-adv-x="1024">
<font-face units-per-em="1024" ascent="960" descent="-64" />
<missing-glyph horiz-adv-x="1024" />
<glyph unicode="&#x20;" horiz-adv-x="512" d="" />
<glyph unicode="&#xe900;" glyph-name="shape" horiz-adv-x="939" d="M69.973 0l61.44 640h136.533v-72.533c-19.912-10.847-33.213-31.596-33.28-55.457v-0.009c0-34.987 29.867-64 67.413-64 36.693 0 67.413 29.013 67.413 64-0.244 24.034-13.878 44.828-33.788 55.301l-0.346 0.166v72.533h268.8v-72.533c-20.255-10.639-33.889-31.432-34.133-55.433v-0.033c0-34.987 30.72-64 68.267-64 36.693 0 66.56 29.013 66.56 64-0.244 24.034-13.878 44.828-33.788 55.301l-0.346 0.166v72.533h137.387l61.44-640zM334.507 768c0 70.827 60.587 128 134.827 128s133.973-57.173 133.973-128v-64h-267.947zM872.107 674.133c-1.781 16.86-15.923 29.883-33.106 29.883-0.361 0-0.721-0.006-1.080-0.017l0.052 0.001h-167.253v64c-2.353 106.574-89.303 192.068-196.222 192.068-1.816 0-3.626-0.025-5.431-0.074l0.266 0.006c-110.933 0-201.387-85.333-201.387-192v-64h-167.253c-17.067 0-31.573-12.8-34.133-29.013l-66.56-704c0-8.533 2.56-17.92 8.533-24.747 6.202-6.334 14.841-10.261 24.397-10.261 0.423 0 0.844 0.008 1.264 0.023l-0.061-0.002h870.4c0.359-0.014 0.78-0.021 1.203-0.021 9.556 0 18.195 3.927 24.391 10.255l0.006 0.006c5.372 5.649 8.677 13.309 8.677 21.74 0 1.059-0.052 2.105-0.154 3.137l0.010-0.131z" />
<glyph unicode="&#xe901;" glyph-name="facebook" horiz-adv-x="551" d="M196.923-15.163h129.182v420.628c0 13.391 11.028 23.631 23.631 23.631h126.818l15.754 125.243h-141.785c-0.004 0-0.008 0-0.013 0-13.209 0-23.968 10.488-24.405 23.591l-0.001 0.040v111.065c0 47.262 11.028 108.702 109.489 108.702h66.166v108.702c-24.418 2.363-64.591 4.726-107.914 4.726-123.668 0-196.923-76.406-196.923-204.8v-127.606c0-13.391-11.028-24.418-23.631-24.418h-124.455v-124.455h123.668c13.391 0 24.418-11.028 24.418-24.418v-420.628zM350.523-64h-177.231c-13.486 0-24.418 10.933-24.418 24.418v0 420.628h-124.455c-0.004 0-0.008 0-0.013 0-13.209 0-23.968 10.488-24.405 23.591l-0.001 0.040v173.292c0 14.178 11.028 25.206 23.631 25.206h125.243v103.188c0 156.751 94.523 253.637 245.76 253.637 67.742 0 122.092-5.514 135.483-7.089 12.603-1.575 21.268-11.815 21.268-23.631v-155.963c0-13.391-11.028-23.631-23.631-23.631h-91.372c-52.775 0-61.44-18.117-61.44-60.652v-86.646h146.511c13.233-0.326 23.836-11.13 23.836-24.412 0-1.113-0.075-2.209-0.219-3.283l0.014 0.125-22.055-173.292c-1.934-11.531-11.731-20.244-23.606-20.48h-124.48v-420.628c0.008-0.235 0.013-0.511 0.013-0.788 0-13.051-10.58-23.631-23.631-23.631-0.005 0-0.009 0-0.014 0h0.001z" />
<glyph unicode="&#xe902;" glyph-name="twitter" horiz-adv-x="1195" d="M134.827 45.227c73.744-33.896 159.992-53.69 250.855-53.76h0.025c401.067 0 640 339.627 640 668.16l-0.853 30.72c0 8.533 3.413 17.067 11.093 23.040 18.773 14.507 36.693 30.72 53.76 47.787-17.067-4.267-34.987-7.68-52.907-9.387-1.029-0.146-2.217-0.23-3.424-0.23-11.793 0-21.723 7.974-24.694 18.824l-0.042 0.18c-4.267 11.947 0 25.6 11.093 32.427 21.333 12.8 40.107 29.867 54.613 49.493-25.6-10.24-53.76-18.773-81.067-24.747-1.564-0.339-3.36-0.534-5.201-0.534-7.819 0-14.82 3.506-19.515 9.031l-0.030 0.037c-37.499 41.796-91.609 68.037-151.852 68.267h-0.041c-115.235-3.313-207.389-97.52-207.389-213.25 0-1.229 0.010-2.456 0.031-3.68l-0.002 0.184c0-17.067 1.707-33.28 5.12-49.493 2.56-8.533 0-17.067-5.12-23.893s-13.653-11.093-22.187-10.24c-189.862 11.53-357.273 99.012-473.774 232.167l-0.679 0.793c-8.014-21.853-12.649-47.086-12.649-73.402 0-73.736 36.39-138.972 92.19-178.73l0.672-0.455c10.24-6.827 14.507-19.627 11.093-31.573-3.594-11.096-13.597-19.079-25.539-19.624l-0.061-0.002c-25.6 0.853-51.2 5.973-75.093 13.653 17.067-85.333 79.36-153.6 162.133-170.667 11.947-2.56 21.333-13.653 21.333-26.453s-7.68-24.747-19.627-28.16c-23.040-5.973-46.933-9.387-69.973-8.533 34.987-66.56 102.4-109.227 176.64-110.933 11.093 0 21.333-7.68 24.747-18.773s0-23.040-8.533-30.72c-69.881-58.036-157.613-96.873-253.863-107.332l-2.137-0.188zM385.707-64c-139.459 0.065-268.927 42.792-376.074 115.836l2.314-1.489c-7.223 5.166-11.874 13.526-11.874 22.973 0 3.39 0.599 6.639 1.697 9.649l-0.062-0.196c3.285 10.61 13.009 18.183 24.502 18.183 1.291 0 2.559-0.096 3.798-0.28l-0.14 0.017c93.867-11.093 191.147 8.533 273.067 58.027-83.855 27.379-148.294 92.943-173.584 175.607l-0.496 1.886c-0.698 2.334-1.099 5.015-1.099 7.791 0 7.173 2.682 13.72 7.098 18.692l-0.025-0.029c3.413 5.12 8.533 8.533 14.507 8.533-63.197 51.252-103.259 128.896-103.259 215.898 0 0.599 0.002 1.197 0.006 1.794v-0.092c0 9.387 5.12 20.48 12.8 25.6 8.533 4.267 17.92 5.973 26.453 1.707l6.827-4.267c-28.085 42.977-44.792 95.603-44.792 152.132 0 50.724 13.452 98.305 36.983 139.372l-0.724-1.371c4.216 7.25 11.711 12.191 20.4 12.796l0.080 0.004c8.533 0.853 17.067-2.56 22.187-9.387 102.742-132.526 254.681-222.66 427.968-242.918l2.965-0.282-0.853 25.6c0 150.187 116.907 272.213 260.267 272.213 70.045-0.547 133.307-29.142 179.197-75.090l0.003-0.003c48.511 11.832 91.213 30.328 129.748 54.797l-1.748-1.037c3.637 2.105 8.002 3.347 12.656 3.347 6.239 0 11.956-2.232 16.398-5.94l-0.041 0.033c8.533-6.827 12.8-18.773 8.533-29.867-8.533-28.16-20.48-53.76-36.693-76.8l32.427 13.653c3.125 1.465 6.787 2.319 10.648 2.319 8.613 0 16.232-4.253 20.872-10.774l0.053-0.079c7.68-8.533 8.533-22.187 1.707-32.427-30.72-47.787-68.267-89.6-111.787-124.587v-17.92c0-355.84-259.413-723.627-692.907-723.627z" />
<glyph unicode="&#xe903;" glyph-name="instagram" horiz-adv-x="1109" d="M422.4 335.36c0-68.267 59.733-124.587 132.267-124.587 1.285-0.046 2.795-0.073 4.31-0.073 69.518 0 126.092 55.419 127.953 124.487l0.004 0.172c0 69.12-59.733 125.44-132.267 125.44-1.279 0.046-2.782 0.072-4.291 0.072-69.818 0-126.58-55.898-127.974-125.382l-0.002-0.13zM369.493 335.36c0 96.427 83.627 174.933 186.027 174.933s185.173-78.507 185.173-174.933-83.627-174.933-185.173-174.933c-102.4 0-186.027 78.507-186.027 174.933zM1056.427 735.573c0 96.427-82.773 174.080-185.173 174.080h-633.173c-102.4 0-185.173-77.653-185.173-174.080v-150.187h326.827c49.575 31.745 110.052 50.601 174.933 50.601s125.358-18.857 176.25-51.389l-1.317 0.787h326.827zM290.133 335.36c0-137.387 119.467-249.173 264.533-249.173 145.92 0 264.533 110.933 264.533 249.173s-118.613 250.027-264.533 250.027c-145.067 0-264.533-111.787-264.533-250.027zM1056.427 535.040h-266.24c51.2-52.907 81.067-122.027 81.067-198.827 0-165.547-141.653-299.52-316.587-299.52s-316.587 133.973-316.587 298.667c0 76.8 30.72 146.773 81.067 199.68h-266.24v-373.76c0-96.427 82.773-174.080 185.173-174.080h633.173c102.4 0 185.173 77.653 185.173 174.080zM1109.333 735.573v-575.147c-4.219-124.877-106.466-224.507-231.982-224.507-2.144 0-4.282 0.029-6.412 0.087l0.314-0.007h-633.173c-1.816-0.051-3.954-0.080-6.098-0.080-125.516 0-227.763 99.63-231.972 224.121l-0.010 0.386v575.147c4.219 124.877 106.466 224.507 231.982 224.507 2.144 0 4.282-0.029 6.412-0.087l-0.314 0.007h633.173c1.816 0.051 3.954 0.080 6.098 0.080 125.516 0 227.763-99.63 231.972-224.121l0.010-0.386zM938.667 769.707c0 0.014 0 0.031 0 0.048 0 4.242-3.438 7.68-7.68 7.68-0.301 0-0.597-0.017-0.889-0.051l0.036 0.003h-101.547c-4.242 0-7.68-3.438-7.68-7.68v-96.427c0-4.267 3.413-7.68 8.533-7.68h101.547c3.413 0 6.827 3.413 6.827 7.68zM989.867 769.707v-95.573c0-31.573-26.453-57.173-59.733-57.173h-101.547c-33.28 0-59.733 25.6-59.733 57.173v95.573c0 31.573 26.453 57.173 59.733 57.173h101.547c33.28 0 59.733-25.6 59.733-57.173z" />
<glyph unicode="&#xe904;" glyph-name="car" horiz-adv-x="1676" d="M527.515 24.126c-1.367-0.099-2.961-0.155-4.568-0.155-37.189 0-67.336 30.147-67.336 67.336s30.147 67.336 67.336 67.336c1.607 0 3.202-0.056 4.781-0.167l-0.213 0.012c35.17-2.464 62.767-31.6 62.767-67.181s-27.597-64.716-62.555-67.169l-0.213-0.012zM527.515 246.303c-85.688 0-155.152-69.464-155.152-155.152s69.464-155.152 155.152-155.152v0c85.688 0 155.152 69.464 155.152 155.152s-69.464 155.152-155.152 155.152v0zM1303.273 24.126c-1.367-0.099-2.961-0.155-4.568-0.155-37.189 0-67.336 30.147-67.336 67.336s30.147 67.336 67.336 67.336c1.607 0 3.202-0.056 4.781-0.167l-0.213 0.012c35.17-2.464 62.767-31.6 62.767-67.181s-27.597-64.716-62.555-67.169l-0.213-0.012zM1303.273 246.303c-85.688 0-155.152-69.464-155.152-155.152s69.464-155.152 155.152-155.152v0c85.688 0 155.152 69.464 155.152 155.152s-69.464 155.152-155.152 155.152v0zM713.697 666.453c0-26.376-16.756-47.787-37.236-47.787h-515.103c-20.48 0-37.236 21.721-37.236 47.787v28.548c0 26.376 16.756 47.787 37.236 47.787h515.103c20.48 0 37.236-21.721 37.236-47.787v-28.548zM1428.635 461.343h-238.933c-9.93 0-11.171 9.93-11.171 9.93v201.076s-0.621 7.758 12.412 7.758h67.956c40.96 0 89.988-30.099 108.916-67.025l63.302-129.396c2.482-4.965 5.275-9.619 8.378-13.964 2.172-3.103-1.552-8.378-10.861-8.378zM1588.441 453.896c-53.993 14.274-85.023 23.273-106.124 64.543l-71.37 145.532c-25.315 42.886-70.077 71.953-121.838 75.073l-0.422 0.020h-97.125s-13.033 0-13.033 13.033v121.949c0 47.166-26.376 85.954-82.541 85.954h-791.273c-80.368 0-118.536-38.788-118.536-85.954v-76.335s0-22.652 21.721-22.652h442.802c41.27 0 75.093-34.133 75.093-76.024v-22.652c0-0.093 0.001-0.203 0.001-0.313 0-41.598-33.546-75.36-75.061-75.711h-442.835s-21.721 1.862-21.721-21.721v-26.376c0-21.101 28.238-21.101 28.238-21.101h297.891c41.581 0 75.404-34.133 75.404-75.714v-22.962c0-0.093 0.001-0.203 0.001-0.313 0-41.598-33.546-75.36-75.061-75.711h-293.58s-32.892 0.621-32.892-25.755v-184.63c0-0.093-0.001-0.203-0.001-0.313 0-47.082 37.991-85.29 84.99-85.641h46.578c10.861 0 12.412 6.206 12.412 8.999-0.001 0.277-0.002 0.605-0.002 0.933 0 106.44 86.023 192.789 192.34 193.316h0.051c105.503 0 191.767-86.885 191.767-194.25 0-3.103-0.931-8.999 7.447-8.999h378.57c7.447 0 7.137 6.206 7.137 8.999-0.001 0.278-0.002 0.606-0.002 0.935 0 106.331 85.847 192.612 192.013 193.314h0.067c105.813 0 192.078-86.885 192.078-194.25 0-3.103 0-8.999 4.655-8.999h95.573c45.925 0 83.782 38.167 83.782 85.023v161.358c0 135.602-42.512 135.602-87.195 147.394zM558.545 449.241c0-26.376-17.067-47.787-37.857-47.787h-482.832c-20.79 0-37.857 21.721-37.857 47.787v28.548c0 26.376 17.067 47.787 37.857 47.787h482.832c20.79 0 37.857-21.721 37.857-47.787z" />
<glyph unicode="&#xe905;" glyph-name="suport" d="M702.787 156.968c-1.54 1.426-3.294 3.009-5.067 4.572l-0.322 0.278c-43.385 34.493-77.069 50.661-105.903 50.661-35.301 0-58.476-23.444-83.267-48.236l-7.815-8.084c-3.183-3.029-7.5-4.893-12.251-4.893-0.43 0-0.857 0.015-1.279 0.045l0.057-0.003c-20.48 0-64.674 19.672-157.912 112.64-33.419 31.925-63.53 66.739-90.125 104.222l-1.496 2.221c-12.126 18.324-29.912 50.931-16.168 64.404l7.815 7.815c44.733 43.924 83.537 81.92-2.695 188.093l-8.084 9.701c57.114 138.006 190.703 233.331 346.557 233.331 205.422 0 372.166-165.602 374.014-370.588l0.001-0.175c0-156.834-97.819-291.032-236.059-345.735zM1024 503.242c-0.766 252.425-205.572 456.758-458.103 456.758-0.19 0-0.381 0-0.571 0h0.030c-187.823 0-349.507-113.179-420.379-274.324l-8.084 0.539c-40.96 0-72.219-32.876-99.705-61.979l-14.013-14.013c-30.989-30.989-30.989-98.627 0.269-181.356 34.493-90.813 102.4-189.709 191.326-278.636 158.989-158.181 309.895-214.232 390.737-214.232 31.259 0 55.781 8.084 71.141 23.175l14.282 13.743c29.642 28.295 63.596 60.362 61.979 102.4l-1.347 10.24c161.592 72.785 272.121 232.288 272.438 417.643v0.041zM485.053 485.187c16.168 21.288 28.564 38.535 35.84 51.739 7.815 14.013 11.587 29.373 11.587 45.811 0 24.253-7.006 44.194-20.749 58.745-13.474 14.821-32.337 22.097-56.051 22.097-23.983 0-43.116-8.623-57.667-25.6-12.982-15.627-20.861-35.898-20.861-58.008 0-1.586 0.041-3.163 0.121-4.729l-0.009 0.22v-1.078l1.886-5.928h51.2v6.198c0 11.587 2.156 21.019 6.737 27.756 3.668 5.88 10.101 9.734 17.434 9.734 0.408 0 0.813-0.012 1.215-0.035l-0.055 0.003c7.545 0 12.935-2.695 16.707-8.084 4.312-5.659 6.198-12.935 6.198-22.097 0-7.006-1.886-14.821-5.659-23.175-4.042-8.893-11.048-20.211-20.749-33.145l-71.411-89.735v-41.768h158.181v51.469h-85.154zM627.874 518.063l39.074 59.284v-59.284h-39.074zM727.040 663.579h-57.937l-103.208-157.373 2.695-35.032h98.358v-50.122h60.093v50.122h27.486v47.158h-27.486v145.246z" />
<glyph unicode="&#xe906;" glyph-name="comments" horiz-adv-x="1117" d="M1019.345 34.676c-8.203 0.568-15.803 2.568-22.748 5.752l0.406-0.167-170.356 63.302c-79.155-60.987-179.715-97.746-288.86-97.746-0.229 0-0.459 0-0.688 0h0.036c-3.089-0.076-6.727-0.119-10.375-0.119-246.494 0-447.041 196.721-453.207 441.729l-0.011 0.571c6.177 245.579 206.724 442.301 453.218 442.301 3.648 0 7.286-0.043 10.913-0.129l-0.539 0.010c3.089 0.076 6.727 0.119 10.375 0.119 246.494 0 447.041-196.721 453.207-441.729l0.011-0.571c0-61.44-13.033-119.156-37.236-172.218l76.335-195.491c10.24-27.927 0.931-45.615-20.48-45.615zM1107.782 103.564l-65.164 171.287c20.48 55.855 30.72 113.571 30.72 173.149 0 282.065-240.175 512-536.204 512-3.65 0.091-7.949 0.143-12.26 0.143-285.435 0-517.671-227.774-524.861-511.477l-0.013-0.666c0-282.065 241.105-512 537.135-512 107.055 0 212.247 30.72 300.684 88.436l132.189-49.338c16.756-6.516 33.513-9.309 49.338-9.309 32.582 0 62.371 13.964 80.058 37.236 12.102 16.756 27.927 50.269 9.309 100.538zM744.727 448c0 25.706 20.839 46.545 46.545 46.545s46.545-20.839 46.545-46.545v0c0-25.706-20.839-46.545-46.545-46.545s-46.545 20.839-46.545 46.545v0zM465.455 448c0 25.706 20.839 46.545 46.545 46.545s46.545-20.839 46.545-46.545v0c0-25.706-20.839-46.545-46.545-46.545s-46.545 20.839-46.545 46.545v0zM186.182 448c0 26.065 41.891 46.545 93.091 46.545s93.091-20.48 93.091-46.545-41.891-46.545-93.091-46.545-93.091 20.48-93.091 46.545z" />
<glyph unicode="&#xe907;" glyph-name="phone" d="M892.018 98.418c-8.533-9.102-17.067-17.067-26.453-26.453-14.222-13.369-28.444-27.307-42.098-43.236-19.325-21.225-47.071-34.494-77.915-34.494-1.408 0-2.81 0.028-4.205 0.082l0.201-0.006h-9.956c-63.051 6.68-120.569 24.752-172.39 52.158l2.576-1.243c-126.933 62.133-233.866 146.419-319.928 248.832l-1.21 1.479c-64.444 73.876-117.283 159.983-154.373 254.024l-2.071 5.958c-20.48 54.044-27.876 95.858-24.462 135.396 1.991 25.6 11.947 46.364 29.867 64.569l74.24 73.956c10.809 9.671 21.902 15.076 32.996 15.076 13.938 0 25.031-8.249 31.858-15.076l0.569-0.569c13.369-12.516 25.884-25.316 39.253-38.969l20.764-20.764 59.449-59.164c22.756-23.040 22.756-44.373 0-67.413l-18.773-18.489c-18.204-18.773-35.84-35.84-54.613-52.907l-1.138-1.138c-18.773-18.489-15.076-36.978-11.378-49.209l0.853-1.707c15.36-37.262 36.978-72.533 70.258-114.347 54.587-68.451 118.458-126.532 190.343-173.338l3.079-1.88c8.818-5.689 17.92-10.24 26.738-14.507l21.618-11.378 2.56-1.707c7.396-3.698 14.222-5.404 21.618-5.404 17.92 0 29.298 11.378 32.996 15.076l74.524 73.956c7.396 7.396 19.058 16.213 32.711 16.213 13.369 0 24.462-8.533 31.289-15.644l0.569-0.569 119.751-119.467c22.756-21.902 22.756-44.658 0.284-67.698zM814.080 326.542c-18.211 20.159-44.247 32.953-73.279 33.563l-0.108 0.002c-27.022 0-52.622-11.378-74.524-33.28l-68.836-68.267-16.782 8.533c-7.68 3.982-15.076 7.68-21.333 11.378-69.392 45.315-128.554 99.23-178.045 161.206l-1.155 1.497c-27.307 34.133-45.511 63.147-58.88 92.444 17.92 16.213 34.418 32.996 50.631 49.209l18.204 18.489c45.511 45.511 45.511 104.391 0 149.902l-59.449 59.164-19.911 20.48c-13.369 13.653-27.022 27.307-41.244 40.391-18.427 19.236-44.16 31.346-72.724 31.856l-0.094 0.001c-26.453 0-52.338-11.093-73.956-31.858l-0.569-0.284-73.956-74.524c-26.529-25.899-43.978-60.996-47.18-100.127l-0.037-0.566c-5.12-63.147 13.653-122.311 27.876-160.711 41.595-106.359 97.803-197.938 167.341-277.58l-0.941 1.1c92.721-110.353 206.393-199.83 335.3-263.001l6.033-2.671c49.778-23.609 116.622-51.769 191.147-56.32l13.938-0.569c50.062 0 92.444 17.92 125.44 53.76l0.853 1.138c11.378 13.653 24.462 25.884 38.116 39.253 9.387 8.533 19.058 18.204 28.444 27.876 19.579 19.049 31.956 45.414 32.708 74.67l0.003 0.139c0 27.022-11.378 52.622-33.564 74.524zM536.462 702.293c59.594-10.36 111.357-38.42 151.017-78.483l0.023-0.023c40.058-39.804 68.108-91.649 78.264-149.65l0.243-1.674c2.276-14.222 14.791-24.462 29.013-24.462 1.991 0 3.413 0 5.12 0.569 16.213 2.56 27.022 17.92 24.462 34.133-12.624 72.132-46.561 134.79-94.985 182.879l-0.019 0.019c-48.108 48.443-110.765 82.38-180.868 94.709l-2.030 0.296c-16.213 2.56-31.289-8.249-34.133-24.178s7.68-31.573 23.893-34.133zM1023.431 510.009c-20.289 116.642-75.069 217.992-153.291 295.798l-0.024 0.024c-77.802 78.352-179.152 133.228-292.545 153.124l-3.277 0.476c-15.929 2.844-30.72-7.964-33.564-23.609-2.56-15.929 7.964-30.72 23.893-33.564 100.409-17.067 191.716-64.569 264.533-137.102 70-69.578 118.995-160.218 136.681-261.615l0.422-2.919c2.56-14.222 14.791-24.178 28.444-24.178 1.991 0 3.413 0 5.12 0.569 13.698 2.21 24.033 13.948 24.033 28.1 0 1.73-0.154 3.423-0.45 5.068l0.026-0.173z" />
<glyph unicode="&#xe908;" glyph-name="mail" horiz-adv-x="1306" d="M1117.572-64h-906.77c-105.931 0-210.803 77.683-210.803 193.501v488.342c0 108.756 89.335 200.916 200.21 200.916 17.302 0 28.954-14.124 28.954-31.426s-10.593-31.073-27.542-31.073c-0.001 0-0.003 0-0.004 0-76.658 0-138.872-61.843-139.471-138.359v-488.399c0-76.977 74.152-130.648 148.303-130.648h907.476c72.386 0 126.411 49.788 126.411 130.648v488.342c0.043 1.268 0.067 2.757 0.067 4.253 0 73.384-58.911 133.009-132.020 134.162l-0.108 0.001c-17.302 0-33.545 14.124-33.545 31.073 0 17.655 17.655 31.426 34.604 31.426 106.856-0.529 193.276-87.274 193.276-194.205 0-2.484-0.047-4.958-0.139-7.419l0.011 0.355v-487.989c0-115.818-81.214-193.501-188.91-193.501zM657.832 324.414c-33.898 0-67.090 8.121-97.103 24.364l-510.588 308.259c-8.962 5.216-14.89 14.776-14.89 25.721 0 5.919 1.734 11.433 4.721 16.062l-0.071-0.117c5.776 8.616 15.475 14.212 26.482 14.212 6.14 0 11.872-1.741 16.732-4.756l-0.136 0.078 509.175-307.2c40.96-22.246 92.866-21.892 134.179 1.059l496.817 306.141c4.724 2.937 10.457 4.678 16.596 4.678 11.007 0 20.707-5.596 26.41-14.097l0.072-0.114c9.181-14.124 4.943-32.839-9.534-41.666l-497.876-306.494c-29.11-16.437-63.917-26.124-100.986-26.13h-0.001zM598.863 726.246c0-17.655 3.531-31.073 10.593-40.607 7.415-9.534 16.949-14.124 28.954-14.124 13.771 0 25.777 5.65 36.017 16.596 10.593 10.946 18.361 24.717 23.658 41.666 5.65 16.949 8.121 33.192 8.121 48.728 0 7.768-0.706 14.83-2.472 21.186-1.845 6.209-4.621 11.616-8.214 16.371l0.093-0.128c-6.496 8.837-16.852 14.508-28.532 14.508-0.521 0-1.039-0.011-1.555-0.034l0.073 0.003c-13.065 0-24.717-4.943-34.957-15.183-10.24-9.887-18.008-22.952-23.658-38.841-5.15-14.612-8.126-31.461-8.126-49.005 0-0.399 0.002-0.798 0.005-1.197v0.061zM718.919 840.298l5.297 24.717h57.909l-33.192-158.19c-2.119-9.887-3.531-16.596-3.531-19.774 0-3.531 1.059-6.003 2.825-8.121 1.766-1.766 3.531-2.825 6.003-2.825 7.768 0 18.008 5.297 30.72 15.537 28.375 24.656 46.3 60.698 46.609 100.934v0.054c0 17.655-3.531 34.251-10.24 49.434-6.766 16.105-16.459 29.762-28.522 40.887l-0.080 0.073c-13.062 11.596-28.59 20.749-45.665 26.557l-0.945 0.279c-19.221 6.139-41.329 9.678-64.265 9.678s-45.044-3.538-65.81-10.099l1.545 0.421c-38.748-11.14-70.364-36.321-89.655-69.546l-0.387-0.722c-8.828-14.83-15.89-31.426-20.48-49.434-4.59-18.361-7.062-36.723-7.062-55.79 0-25.423 4.943-48.375 15.183-69.208 9.887-21.186 24.717-38.841 43.432-52.966 19.068-14.124 42.372-24.011 69.208-30.014 27.189-6.003 57.556-7.062 91.807-3.531 27.189 3.178 49.788 9.181 68.855 18.361 18.714 9.181 34.604 21.892 47.669 38.488h46.61c-15.382-32.172-40.495-57.627-71.483-73.039l-0.903-0.406c-15.874-8.156-34.291-14.741-53.634-18.812l-1.45-0.255c-20.48-4.59-42.372-6.709-66.737-6.709-1.32-0.020-2.877-0.032-4.438-0.032-33.085 0-64.962 5.177-94.863 14.764l2.197-0.609c-28.147 8.941-52.431 22.964-72.949 41.142l0.21-0.182c-19.421 17.655-34.251 39.194-44.491 63.912-9.538 25.048-15.061 54.014-15.061 84.27 0 30.612 5.654 59.904 15.974 86.888l-0.56-1.668c20.874 54.32 62.614 96.636 115.148 117.8l1.376 0.49c26.971 10.979 58.262 17.351 91.041 17.351 28.066 0 55.041-4.671 80.19-13.278l-1.741 0.518c22.997-8.059 42.761-20.089 59.443-35.421l-0.122 0.111c16.596-14.83 29.308-33.192 38.135-54.025 8.168-19.78 12.91-42.746 12.91-66.82 0-21.621-3.825-42.349-10.836-61.544l0.398 1.246c-7.062-19.068-17.302-36.017-30.367-50.847-13.065-15.183-28.248-27.189-45.903-35.663-16.381-8.245-35.701-13.073-56.148-13.073-0.495 0-0.989 0.003-1.483 0.008l0.075-0.001c-11.652 0-21.186 1.766-27.542 6.003-6.634 4.298-11.388 11.015-13.031 18.875l-0.034 0.193c-15.369-15.537-36.69-25.159-60.259-25.159-11.366 0-22.209 2.237-32.113 6.296l0.565-0.205c-15.537 6.356-28.248 16.949-37.782 32.132-8.927 14.886-14.207 32.844-14.207 52.035 0 1.445 0.030 2.883 0.089 4.313l-0.007-0.205c0 22.952 4.59 45.903 14.477 67.796 9.887 22.599 24.011 40.607 42.372 55.084 18.008 14.124 38.841 21.186 61.44 21.186 26.483 0 45.903-9.887 57.909-29.661z" />
<glyph unicode="&#xe909;" glyph-name="local" horiz-adv-x="796" d="M586.524 165.547c-51.032-65.16-105.675-122.869-165.234-175.109l-1.45-1.247c-5.689-4.267-13.369-6.827-21.618-6.827s-16.213 2.56-21.618 7.111c-3.129 2.844-330.809 277.902-330.809 567.751 0 196.267 158.151 356.409 352.427 356.409s352.427-159.858 352.427-356.409c0-150.187-89.316-295.822-164.124-391.68zM398.222 960c-219.591 0-398.222-180.622-398.222-402.773 0-72.818 18.489-150.187 55.182-229.547 34.915-73.077 74.744-136.027 120.956-193.636l-1.489 1.921c85.333-109.227 169.529-179.2 172.942-182.329 13.653-11.378 31.573-17.636 50.631-17.636s36.978 6.258 50.631 17.636c63.431 55.145 120.13 114.73 170.828 179.253l2.114 2.792c44.736 55.764 84.568 118.81 116.924 186.13l2.543 5.87c33.248 67.024 53.425 145.726 55.173 228.961l0.010 0.586c0.002 0.51 0.004 1.113 0.004 1.717 0 220.504-177.948 399.447-398.073 401.056l-0.153 0.001zM398.222 383.431c-2.083-0.087-4.527-0.137-6.983-0.137-98.655 0-178.631 79.976-178.631 178.631s79.976 178.631 178.631 178.631c2.556 0 5.099-0.054 7.629-0.16l-0.362 0.012c95.478-4.009 171.364-82.384 171.364-178.483 0-96.199-76.044-174.638-171.299-178.483l-0.349-0.011zM398.222 789.333c-125.675 0-227.556-101.88-227.556-227.556s101.88-227.556 227.556-227.556v0c125.675 0 227.556 101.88 227.556 227.556s-101.88 227.556-227.556 227.556v0z" />
<glyph unicode="&#xe90a;" glyph-name="perfect" horiz-adv-x="849" d="M412.098 426.771c-1.79-0.080-3.889-0.125-5.998-0.125-79.589 0-144.109 64.52-144.109 144.109s64.52 144.109 144.109 144.109c2.11 0 4.209-0.045 6.296-0.135l-0.298 0.010c76.966-3.306 138.111-66.505 138.111-143.984s-61.145-140.678-137.813-143.974l-0.298-0.010zM599.415 572.878c0 103.452-83.865 187.317-187.317 187.317s-187.317-83.865-187.317-187.317v0c0-103.452 83.865-187.317 187.317-187.317s187.317 83.865 187.317 187.317v0zM688.078 75.114l-23.977-65.936-140.613 239.266 105.397-32.718 19.98 89.912 134.868-228.277-71.68 12.488c-10.74 0-19.481-4.246-23.977-14.985zM253.752 270.423l-22.478 100.652-102.9 21.979 31.969 98.404-78.174 69.932 77.924 69.182-31.969 98.154 102.9 21.979 22.478 100.901 100.402-31.469 70.931 76.425 71.43-76.176 100.402 31.22 22.478-100.652 102.9-21.979-31.969-98.154 77.924-69.432-77.924-69.432 31.969-98.154-102.9-21.979-22.478-100.652-100.402 31.22-70.931-76.176-71.18 75.676zM157.596 75.114c-2.55 8.529-10.289 14.654-19.471 14.736h-4.255l-71.93-12.738 137.865 234.271 21.479-95.906 100.152 31.22-139.863-237.518zM844.425 55.883l-167.337 284.222 101.151 21.479-37.963 116.886 92.41 82.42-92.41 82.42 37.963 117.136-122.38 25.975-26.974 120.382-119.633-37.463-84.168 90.661-84.418-90.661-119.383 37.463-26.724-119.883-122.38-26.224 37.963-116.636-92.66-82.669 92.41-82.42-37.963-116.886 97.904-20.98-166.338-282.974c-10.989-19.231 5.994-35.965 21.479-31.969l99.902 19.231 32.968-93.659c4.995-15.984 28.722-22.478 38.962-4.246l166.587 280.976 61.69-66.185 59.692 63.938 164.34-278.728c11.739-18.981 37.214-11.739 41.46 1.998l32.468 93.659 99.902-19.231c18.232-4.995 34.466 11.739 21.729 31.969z" />
<glyph unicode="&#xe90b;" glyph-name="stars" horiz-adv-x="1117" d="M558.545 176.175l344.436-240.175-130.327 390.982 344.436 232.727h-418.909l-139.636 400.291-139.636-400.291h-418.909l344.436-232.727-130.327-390.982z" />
<glyph unicode="&#xe90c;" glyph-name="arr-left" horiz-adv-x="551" d="M62.228-53.76c-6.402-6.339-15.212-10.256-24.937-10.256-0.371 0-0.742 0.006-1.11 0.017l0.054-0.001c-19.996 0.020-36.198 16.235-36.198 36.234 0 9.801 3.891 18.693 10.213 25.216l-0.009-0.009 452.923 450.56-452.135 450.56c-6.544 6.555-10.591 15.605-10.591 25.6s4.047 19.045 10.592 25.6v0c6.555 6.544 15.605 10.591 25.6 10.591s19.045-4.047 25.6-10.592v0l478.129-475.766c14.966-14.178 14.966-37.809 0-51.2l-478.129-476.554z" />
</font></defs></svg>